%YAML 1.1
%TAG !u! tag:unity3d.com,2011:
--- !u!114 &11400000
MonoBehaviour:
  m_ObjectHideFlags: 0
  m_CorrespondingSourceObject: {fileID: 0}
  m_PrefabInternal: {fileID: 0}
  m_GameObject: {fileID: 0}
  m_Enabled: 1
  m_EditorHideFlags: 0
  m_Script: {fileID: 866318651, guid: fc2e469d7303e294eac72719300d0a21, type: 3}
  m_Name: MonobitAuthenticateCode
  m_EditorClassIdentifier: 
  saveAuthID: 7QqfPc9dDXxfqFsR9Xn7HnVdo6oSAMsSP3fY+eczRMhJ7XDlfoTLSWF2UcYo8yLquUHWRqZwslMg1kApSMBY6g==
