%YAML 1.1
%TAG !u! tag:unity3d.com,2011:
--- !u!1045 &1
EditorBuildSettings:
  m_ObjectHideFlags: 0
  serializedVersion: 2
  m_Scenes:
  - enabled: 0
    path: Assets/Scenes/VoiceChatTest.unity
    guid: bd7b05028ca220c45b84c6532b065437
  - enabled: 1
    path: Assets/Monobit Unity Networking/Samples/Scenes/SimpleVoiceChat/SimpleVoiceChat.unity
    guid: d69584026c1751a44ba22b51e59c4083
  m_configObjects: {}
